<svg width="264" height="184" viewBox="0 0 264 184" fill="none" xmlns="http://www.w3.org/2000/svg">
<path d="M197.522 117.098C197.53 125.648 195.606 134.106 191.873 141.928C188.141 149.751 182.682 156.767 175.847 162.525C173.946 164.128 171.947 165.63 169.86 167.022C167.182 168.809 164.363 170.407 161.426 171.804H161.396C160.77 172.108 160.134 172.397 159.492 172.677C159.2 172.81 158.913 172.933 158.615 173.056C156.758 173.844 154.853 174.551 152.9 175.177C151.361 175.651 149.781 176.126 148.186 176.515C138.983 178.778 129.363 179.197 119.97 177.743C118.857 177.573 117.759 177.378 116.666 177.155L115.743 176.961C112.955 176.358 110.214 175.588 107.535 174.655C105.979 174.114 104.453 173.521 102.959 172.876C102.379 172.625 101.799 172.368 101.23 172.103C100.84 171.923 100.455 171.738 100.071 171.553C89.6323 166.483 80.8385 158.94 74.5897 149.695C68.3409 140.449 64.8615 129.834 64.508 118.937C64.1544 108.039 66.9393 97.2505 72.5775 87.6754C78.2157 78.1003 86.5046 70.083 96.5954 64.4443C106.686 58.8056 118.216 55.7483 130.005 55.5852C141.794 55.4222 153.418 58.1595 163.687 63.5166C173.955 68.8738 182.5 76.6584 188.445 86.0733C194.39 95.4882 197.523 106.195 197.522 117.098Z" fill="url(#paint0_linear)"/>
<path d="M148.432 121.547C152.67 125.58 165.013 141.272 165.013 141.272L157.43 151.552L150.612 131.13L148.432 121.547Z" fill="url(#paint1_linear)"/>
<path d="M161.396 171.837C160.77 172.141 160.134 172.43 159.492 172.71C159.2 172.843 158.913 172.966 158.615 173.09C156.758 173.877 154.853 174.584 152.9 175.21C151.361 175.684 149.781 176.159 148.186 176.548C138.983 178.812 129.363 179.23 119.97 177.776C118.857 177.606 117.759 177.411 116.666 177.188C112.665 179.74 108.971 181.899 106.524 182.881L106.724 181.301L107.555 174.693L109.479 159.318L117.102 152.501L99.9629 153.73C99.9629 153.73 101.764 130.627 108.792 125.874C115.82 121.12 123.192 116.86 123.192 116.86C124.071 117.397 125.04 117.796 126.06 118.042C128.497 118.665 131.031 118.904 133.555 118.749C136.561 118.62 139.567 116.035 139.711 115.902C139.711 115.902 144.43 116.77 148.432 121.566C150.428 124.035 151.86 126.853 152.644 129.849C153.629 133.355 155.378 141.543 157.369 151.434C158.672 157.8 160.041 164.859 161.396 171.837Z" fill="url(#paint2_linear)"/>
<path d="M165.012 141.291L172.328 149.218L198.055 125.603L199.03 120.769L204.16 116.647L201.877 122.933V131.121C201.877 131.121 182.034 160.865 176.565 162.397C170.168 164.195 157.44 151.543 157.44 151.543L165.012 141.291Z" fill="url(#paint3_linear)"/>
<path d="M138.305 152.131L144.271 165.414L151.982 162.349L146.329 149.351L138.305 152.131Z" fill="#7E57C2"/>
<path d="M146.616 160.713C145.657 161.443 144.225 161.273 142.45 161.358C140.066 161.416 137.778 162.245 135.986 163.701C133.601 165.556 126.932 170.409 120.263 174.84C119.052 175.642 117.841 176.434 116.672 177.212C112.67 179.764 108.977 181.923 106.53 182.905C105.886 183.2 105.191 183.388 104.477 183.46C101.051 183.54 100.317 176.899 100.107 171.6C100.04 169.84 100.025 168.232 99.9886 167.07C99.845 162.421 99.9886 153.787 99.9886 153.787L117.128 152.553L115.312 163.531L114.994 165.471V165.485L120.124 163.73L120.283 163.678L138.495 157.421L139.752 155.414L140.552 157.311H140.629L148.427 156.363C148.427 156.363 148.56 159.237 146.616 160.713Z" fill="url(#paint4_linear)"/>
<path d="M142.681 91.4808C142.235 90.3517 141.85 89.5832 141.737 89.3555V89.2986C141.737 89.2986 141.342 90.1999 138.367 89.9817C135.391 89.7635 134.406 88.3972 134.406 88.3972C134.406 88.3972 135.34 91.3574 131.795 92.624C128.384 93.848 127.04 93.0557 126.947 92.9988C127.127 93.1791 129.795 95.8167 128.025 97.9087C126.193 100.077 122.074 99.6497 122.074 99.6497V99.6782C122.592 100.764 123.173 101.823 123.813 102.852C124.151 103.393 124.485 103.891 124.839 104.356V104.389C125.747 105.756 126.974 106.918 128.43 107.79C127.79 111.262 125.953 114.449 123.192 116.875C124.121 117.323 125.078 117.717 126.06 118.056C127.973 118.725 130.544 119.389 132.837 119.204C135.494 118.941 137.949 117.771 139.721 115.921L138.546 111.751L137.49 107.994C147.042 105.741 144.415 95.94 142.681 91.4808ZM136.956 108.132L137.125 108.094L137.397 108.023C137.002 108.181 136.584 108.286 136.156 108.336C136.376 108.284 136.602 108.227 136.838 108.16L136.956 108.132Z" fill="url(#paint5_linear)"/>
<path d="M148.432 89.1753C144.492 92.5244 142.789 91.5804 142.681 91.4903V91.4808C142.235 90.3517 141.85 89.5832 141.742 89.3555L141.717 89.2986C141.717 89.2986 141.316 90.1999 138.341 89.9817C135.365 89.7635 134.386 88.3973 134.386 88.3973C134.386 88.3973 135.319 91.3574 131.774 92.6241C128.358 93.848 127.014 93.0558 126.926 92.9988C127.106 93.1744 129.774 95.8119 128.004 97.904C126.172 100.072 122.053 99.6497 122.053 99.6497V99.6735C122.571 100.761 123.152 101.822 123.792 102.852C124.134 103.389 124.476 103.891 124.818 104.356V104.389C124.818 104.389 123.412 106.946 120.904 106.894C118.395 106.841 118.339 104.522 118.339 104.522C118.339 104.522 116.564 107.482 111.08 104.631C105.596 101.78 109.253 97.6478 109.253 97.6478C109.253 97.6478 105.365 94.8964 105.365 90.774C105.365 86.6515 111.418 83.5158 111.418 83.5158C111.418 83.5158 109.253 78.7293 112.906 76.0917C116.559 73.4541 122.048 75.2425 122.048 75.2425C122.048 75.2425 121.94 69.1182 127.532 69.2178C133.124 69.3174 134.391 72.4816 134.391 72.4816C134.391 72.4816 139.418 68.8857 144.394 72.2729C149.371 75.66 147.324 81.5661 147.324 81.5661C147.324 81.5661 152.541 85.6885 148.432 89.1753Z" fill="url(#paint6_linear)"/>
<path opacity="0.15" d="M138.588 111.737C136.202 111.04 131.959 108.378 131.959 108.378C133.634 108.542 135.326 108.459 136.972 108.132L137.141 108.094L137.469 108.004H137.515L138.588 111.737Z" fill="black"/>
<path opacity="0.15" d="M119.416 138.312L117.103 152.544L115.287 163.521L111.06 166.771L120.258 163.682C120.258 163.682 117.872 157.383 119.416 138.312Z" fill="black"/>
<path opacity="0.15" d="M116.656 177.188C117.749 177.411 118.847 177.606 119.96 177.776C120.016 176.804 120.119 175.822 120.263 174.84L116.656 177.188Z" fill="black"/>
<g filter="url(#filter0_d)">
<path d="M44.2844 100H16.8538C13.0685 100 10 102.838 10 106.338V131.703C10 135.204 13.0685 138.041 16.8538 138.041H44.2844C48.0696 138.041 51.1381 135.204 51.1381 131.703V106.338C51.1381 102.838 48.0696 100 44.2844 100Z" fill="#F58A8A"/>
</g>
<g filter="url(#filter1_d)">
<path d="M236.284 97H208.854C205.069 97 202 99.8375 202 103.338V128.703C202 132.204 205.069 135.041 208.854 135.041H236.284C240.07 135.041 243.138 132.204 243.138 128.703V103.338C243.138 99.8375 240.07 97 236.284 97Z" fill="#F2C94C"/>
</g>
<g clip-path="url(#clip0)">
<path d="M227.702 121.121C229.25 119.49 230.236 117.187 230.236 114.988C230.236 110.991 226.997 107.751 223 107.751C219.003 107.751 215.764 110.99 215.764 114.988C215.764 115.976 215.972 116.982 216.332 117.942C217.221 119.945 218.967 121.501 221.177 122.066C221.615 121.525 222.276 121.201 223 121.201C224.299 121.201 225.356 122.257 225.356 123.557C225.356 124.856 224.299 125.912 223 125.912C222.075 125.912 221.257 125.372 220.873 124.567C218.973 124.149 217.307 123.195 216.012 121.886C213.161 123.104 211.312 125.044 211.312 127.233C211.312 130.923 234.688 130.923 234.688 127.233C234.688 124.5 231.815 122.155 227.702 121.121Z" fill="white"/>
<path d="M221.507 123.84C221.641 124.544 222.257 125.077 222.999 125.077C223.839 125.077 224.52 124.396 224.52 123.556C224.52 122.717 223.839 122.035 223 122.035C222.354 122.035 221.806 122.439 221.585 123.007C217.763 122.335 214.849 118.998 214.849 114.987C214.849 110.492 218.506 106.835 223 106.835C227.496 106.835 231.152 110.492 231.152 114.987H231.986C231.986 110.032 227.955 106 223 106C218.045 106 214.014 110.031 214.014 114.987C214.013 119.433 217.262 123.125 221.507 123.84Z" fill="white"/>
</g>
<path d="M26.5 115.5C26.5 117.981 28.519 120 31 120C33.481 120 35.5 117.981 35.5 115.5C35.5 113.019 33.481 111 31 111C28.519 111 26.5 113.019 26.5 115.5ZM39 130H40V129C40 125.141 36.859 122 33 122H29C25.14 122 22 125.141 22 129V130H39Z" fill="white"/>
<g filter="url(#filter2_d)">
<path d="M95.2843 18H67.8538C64.0686 18 61 20.8375 61 24.3378V49.7033C61 53.2036 64.0686 56.0411 67.8538 56.0411H95.2843C99.0696 56.0411 102.138 53.2036 102.138 49.7033V24.3378C102.138 20.8375 99.0696 18 95.2843 18Z" fill="#6FCF97"/>
</g>
<g filter="url(#filter3_d)">
<path d="M191.284 18H163.854C160.069 18 157 20.8375 157 24.3378V49.7033C157 53.2036 160.069 56.0411 163.854 56.0411H191.284C195.07 56.0411 198.138 53.2036 198.138 49.7033V24.3378C198.138 20.8375 195.07 18 191.284 18Z" fill="#56CCF2"/>
</g>
<path d="M94 43H75.994V46L70 41.5L75.994 37V40H94V43Z" fill="white"/>
<path d="M70 34H88V37L94 32.5L88 28V31H70V34Z" fill="white"/>
<path d="M185 28H171C170.204 28 169.441 28.3161 168.879 28.8787C168.316 29.4413 168 30.2044 168 31V39C168 39.7956 168.316 40.5587 168.879 41.1213C169.441 41.6839 170.204 42 171 42H177V44H173C172.735 44 172.48 44.1054 172.293 44.2929C172.105 44.4804 172 44.7348 172 45C172 45.2652 172.105 45.5196 172.293 45.7071C172.48 45.8946 172.735 46 173 46H183C183.265 46 183.52 45.8946 183.707 45.7071C183.895 45.5196 184 45.2652 184 45C184 44.7348 183.895 44.4804 183.707 44.2929C183.52 44.1054 183.265 44 183 44H179V42H185C185.796 42 186.559 41.6839 187.121 41.1213C187.684 40.5587 188 39.7956 188 39V31C188 30.2044 187.684 29.4413 187.121 28.8787C186.559 28.3161 185.796 28 185 28ZM186 39C186 39.2652 185.895 39.5196 185.707 39.7071C185.52 39.8946 185.265 40 185 40H171C170.735 40 170.48 39.8946 170.293 39.7071C170.105 39.5196 170 39.2652 170 39V31C170 30.7348 170.105 30.4804 170.293 30.2929C170.48 30.1054 170.735 30 171 30H185C185.265 30 185.52 30.1054 185.707 30.2929C185.895 30.4804 186 30.7348 186 31V39Z" fill="white"/>
<defs>
<filter id="filter0_d" x="0" y="90" width="71.1381" height="68.0411" filterUnits="userSpaceOnUse" color-interpolation-filters="sRGB">
<feFlood flood-opacity="0" result="BackgroundImageFix"/>
<feColorMatrix in="SourceAlpha" type="matrix" values="0 0 0 0 0 0 0 0 0 0 0 0 0 0 0 0 0 0 127 0"/>
<feOffset dx="5" dy="5"/>
<feGaussianBlur stdDeviation="7.5"/>
<feColorMatrix type="matrix" values="0 0 0 0 0 0 0 0 0 0 0 0 0 0 0 0 0 0 0.15 0"/>
<feBlend mode="normal" in2="BackgroundImageFix" result="effect1_dropShadow"/>
<feBlend mode="normal" in="SourceGraphic" in2="effect1_dropShadow" result="shape"/>
</filter>
<filter id="filter1_d" x="192" y="87" width="71.1381" height="68.0411" filterUnits="userSpaceOnUse" color-interpolation-filters="sRGB">
<feFlood flood-opacity="0" result="BackgroundImageFix"/>
<feColorMatrix in="SourceAlpha" type="matrix" values="0 0 0 0 0 0 0 0 0 0 0 0 0 0 0 0 0 0 127 0"/>
<feOffset dx="5" dy="5"/>
<feGaussianBlur stdDeviation="7.5"/>
<feColorMatrix type="matrix" values="0 0 0 0 0 0 0 0 0 0 0 0 0 0 0 0 0 0 0.15 0"/>
<feBlend mode="normal" in2="BackgroundImageFix" result="effect1_dropShadow"/>
<feBlend mode="normal" in="SourceGraphic" in2="effect1_dropShadow" result="shape"/>
</filter>
<filter id="filter2_d" x="51" y="8" width="71.1381" height="68.0411" filterUnits="userSpaceOnUse" color-interpolation-filters="sRGB">
<feFlood flood-opacity="0" result="BackgroundImageFix"/>
<feColorMatrix in="SourceAlpha" type="matrix" values="0 0 0 0 0 0 0 0 0 0 0 0 0 0 0 0 0 0 127 0"/>
<feOffset dx="5" dy="5"/>
<feGaussianBlur stdDeviation="7.5"/>
<feColorMatrix type="matrix" values="0 0 0 0 0 0 0 0 0 0 0 0 0 0 0 0 0 0 0.15 0"/>
<feBlend mode="normal" in2="BackgroundImageFix" result="effect1_dropShadow"/>
<feBlend mode="normal" in="SourceGraphic" in2="effect1_dropShadow" result="shape"/>
</filter>
<filter id="filter3_d" x="147" y="8" width="71.1381" height="68.0411" filterUnits="userSpaceOnUse" color-interpolation-filters="sRGB">
<feFlood flood-opacity="0" result="BackgroundImageFix"/>
<feColorMatrix in="SourceAlpha" type="matrix" values="0 0 0 0 0 0 0 0 0 0 0 0 0 0 0 0 0 0 127 0"/>
<feOffset dx="5" dy="5"/>
<feGaussianBlur stdDeviation="7.5"/>
<feColorMatrix type="matrix" values="0 0 0 0 0 0 0 0 0 0 0 0 0 0 0 0 0 0 0.15 0"/>
<feBlend mode="normal" in2="BackgroundImageFix" result="effect1_dropShadow"/>
<feBlend mode="normal" in="SourceGraphic" in2="effect1_dropShadow" result="shape"/>
</filter>
<linearGradient id="paint0_linear" x1="131.273" y1="62.258" x2="129.327" y2="183.502" gradientUnits="userSpaceOnUse">
<stop stop-color="white" stop-opacity="0"/>
<stop offset="1" stop-color="#64B5F6" stop-opacity="0.6"/>
</linearGradient>
<linearGradient id="paint1_linear" x1="143.41" y1="117.472" x2="159.669" y2="148.369" gradientUnits="userSpaceOnUse">
<stop stop-color="#E57373"/>
<stop offset="1" stop-color="#AD1457"/>
</linearGradient>
<linearGradient id="paint2_linear" x1="28150.2" y1="37043.3" x2="26484" y2="45936.1" gradientUnits="userSpaceOnUse">
<stop stop-color="#E57373"/>
<stop offset="1" stop-color="#AD1457"/>
</linearGradient>
<linearGradient id="paint3_linear" x1="211.122" y1="128.435" x2="163.446" y2="158.303" gradientUnits="userSpaceOnUse">
<stop stop-color="#FFF8E1"/>
<stop offset="1" stop-color="#FFCC80"/>
</linearGradient>
<linearGradient id="paint4_linear" x1="21661.4" y1="20772.5" x2="19114" y2="18915" gradientUnits="userSpaceOnUse">
<stop stop-color="#FFF8E1"/>
<stop offset="1" stop-color="#FFCC80"/>
</linearGradient>
<linearGradient id="paint5_linear" x1="147.704" y1="96.3117" x2="121.257" y2="108.09" gradientUnits="userSpaceOnUse">
<stop stop-color="#FFF8E1"/>
<stop offset="1" stop-color="#FFCC80"/>
</linearGradient>
<linearGradient id="paint6_linear" x1="141.486" y1="69.0375" x2="112.901" y2="110.805" gradientUnits="userSpaceOnUse">
<stop stop-color="#FFB74D"/>
<stop offset="1" stop-color="#F4511E"/>
</linearGradient>
<clipPath id="clip0">
<rect width="24" height="24" fill="white" transform="translate(211 106)"/>
</clipPath>
</defs>
</svg>
