<svg width="33" height="32" viewBox="0 0 33 32" fill="none" xmlns="http://www.w3.org/2000/svg">
<path d="M27.3909 5.33333H6.05754C4.59087 5.33333 3.4042 6.53333 3.4042 8L3.39087 24C3.39087 25.4667 4.59087 26.6667 6.05754 26.6667H27.3909C28.8575 26.6667 30.0575 25.4667 30.0575 24V8C30.0575 6.53333 28.8575 5.33333 27.3909 5.33333ZM27.3909 10.6667L16.7242 17.3333L6.05754 10.6667V8L16.7242 14.6667L27.3909 8V10.6667Z" fill="#333333"/>
</svg>
